%YAML 1.1
%TAG !u! tag:unity3d.com,2011:
--- !u!1045 &1
EditorBuildSettings:
  m_ObjectHideFlags: 0
  serializedVersion: 2
  m_Scenes:
  - enabled: 1
    path: Assets/GoogleARCore/Examples/TankAR/Scenes/MainMenu.unity
    guid: 621809d48e8a94645aedb29c24d476dd
  - enabled: 1
    path: Assets/GoogleARCore/Examples/TankAR/Scenes/GameSceneTank.unity
    guid: e6a6fa04348cb45c9b0221eb19c946da
  - enabled: 1
    path: Assets/GoogleARCore/Examples/TankAR/Scenes/GameSceneRifle.unity
    guid: 4c0baa5133209144e86724ba6ddd60fb
  - enabled: 1
    path: Assets/GoogleARCore/Examples/TankAR/Scenes/GameSceneScope.unity
    guid: 9eaa4c76d85f6fd4a96542a3c0fa5d58
  - enabled: 1
    path: Assets/GoogleARCore/Examples/TankAR/Scenes/GameSceneHumvee.unity
    guid: 1ad1c4d026b18ba4684e854fa246b575
  - enabled: 1
    path: Assets/GoogleARCore/Examples/TankAR/Scenes/InfoScene.unity
    guid: 9647f9dd75d031d46af399c4e276ebf7
  - enabled: 1
    path: Assets/GoogleARCore/Examples/TankAR/Scenes/ComponentScene.unity
    guid: 7148ba4ab63e3bd46a386b576f9a6486
  m_configObjects: {}
